%YAML 1.1
%TAG !u! tag:unity3d.com,2011:
--- !u!74 &7400000
AnimationClip:
  m_ObjectHideFlags: 0
  m_PrefabParentObject: {fileID: 0}
  m_PrefabInternal: {fileID: 0}
  m_Name: DamageOutput
  serializedVersion: 6
  m_Legacy: 1
  m_Compressed: 0
  m_UseHighQualityCurve: 1
  m_RotationCurves: []
  m_CompressedRotationCurves: []
  m_EulerCurves: []
  m_PositionCurves: []
  m_ScaleCurves: []
  m_FloatCurves:
  - curve:
      serializedVersion: 2
      m_Curve:
      - serializedVersion: 2
        time: 0
        value: 0
        inSlope: 270
        outSlope: 270
        tangentMode: 34
      - serializedVersion: 2
        time: 0.16666667
        value: 45
        inSlope: -30
        outSlope: -30
        tangentMode: 34
      - serializedVersion: 2
        time: 0.33333334
        value: -10
        inSlope: -90
        outSlope: Infinity
        tangentMode: 97
      - serializedVersion: 2
        time: 0.68333334
        value: 0
        inSlope: 164.28574
        outSlope: 164.28574
        tangentMode: 34
      - serializedVersion: 2
        time: 1.0166667
        value: 100
        inSlope: 300.00003
        outSlope: 300.00003
        tangentMode: 34
      m_PreInfinity: 2
      m_PostInfinity: 2
      m_RotationOrder: 4
    attribute: m_AnchoredPosition.y
    path: 
    classID: 224
    script: {fileID: 0}
  - curve:
      serializedVersion: 2
      m_Curve:
      - serializedVersion: 2
        time: 0
        value: 1
        inSlope: 0
        outSlope: 0
        tangentMode: 34
      - serializedVersion: 2
        time: 0.68333334
        value: 1
        inSlope: -1.5000001
        outSlope: -1.5000001
        tangentMode: 34
      - serializedVersion: 2
        time: 1.0166667
        value: 0
        inSlope: -3.0000002
        outSlope: -3.0000002
        tangentMode: 34
      m_PreInfinity: 2
      m_PostInfinity: 2
      m_RotationOrder: 4
    attribute: m_Color.a
    path: 
    classID: 114
    script: {fileID: 708705254, guid: f5f67c52d1564df4a8936ccd202a3bd8, type: 3}
  m_PPtrCurves: []
  m_SampleRate: 60
  m_WrapMode: 0
  m_Bounds:
    m_Center: {x: 0, y: 0, z: 0}
    m_Extent: {x: 0, y: 0, z: 0}
  m_ClipBindingConstant:
    genericBindings: []
    pptrCurveMapping: []
  m_AnimationClipSettings:
    serializedVersion: 2
    m_AdditiveReferencePoseClip: {fileID: 0}
    m_AdditiveReferencePoseTime: 0
    m_StartTime: 0
    m_StopTime: 1.0166667
    m_OrientationOffsetY: 0
    m_Level: 0
    m_CycleOffset: 0
    m_HasAdditiveReferencePose: 0
    m_LoopTime: 1
    m_LoopBlend: 0
    m_LoopBlendOrientation: 0
    m_LoopBlendPositionY: 0
    m_LoopBlendPositionXZ: 0
    m_KeepOriginalOrientation: 0
    m_KeepOriginalPositionY: 1
    m_KeepOriginalPositionXZ: 0
    m_HeightFromFeet: 0
    m_Mirror: 0
  m_EditorCurves:
  - curve:
      serializedVersion: 2
      m_Curve:
      - serializedVersion: 2
        time: 0
        value: 0
        inSlope: 270
        outSlope: 270
        tangentMode: 34
      - serializedVersion: 2
        time: 0.16666667
        value: 45
        inSlope: -30
        outSlope: -30
        tangentMode: 34
      - serializedVersion: 2
        time: 0.33333334
        value: -10
        inSlope: -90
        outSlope: Infinity
        tangentMode: 97
      - serializedVersion: 2
        time: 0.68333334
        value: 0
        inSlope: 164.28574
        outSlope: 164.28574
        tangentMode: 34
      - serializedVersion: 2
        time: 1.0166667
        value: 100
        inSlope: 300.00003
        outSlope: 300.00003
        tangentMode: 34
      m_PreInfinity: 2
      m_PostInfinity: 2
      m_RotationOrder: 4
    attribute: m_AnchoredPosition.y
    path: 
    classID: 224
    script: {fileID: 0}
  - curve:
      serializedVersion: 2
      m_Curve:
      - serializedVersion: 2
        time: 0
        value: 1
        inSlope: 0
        outSlope: 0
        tangentMode: 34
      - serializedVersion: 2
        time: 0.68333334
        value: 1
        inSlope: -1.5000001
        outSlope: -1.5000001
        tangentMode: 34
      - serializedVersion: 2
        time: 1.0166667
        value: 0
        inSlope: -3.0000002
        outSlope: -3.0000002
        tangentMode: 34
      m_PreInfinity: 2
      m_PostInfinity: 2
      m_RotationOrder: 4
    attribute: m_Color.a
    path: 
    classID: 114
    script: {fileID: 708705254, guid: f5f67c52d1564df4a8936ccd202a3bd8, type: 3}
  m_EulerEditorCurves: []
  m_HasGenericRootTransform: 0
  m_HasMotionFloatCurves: 0
  m_GenerateMotionCurves: 0
  m_IsEmpty: 0
  m_Events: []
