%YAML 1.1
%TAG !u! tag:unity3d.com,2011:
--- !u!74 &7400000
AnimationClip:
  m_ObjectHideFlags: 0
  m_PrefabParentObject: {fileID: 0}
  m_PrefabInternal: {fileID: 0}
  m_Name: Lightning
  serializedVersion: 6
  m_Legacy: 0
  m_Compressed: 0
  m_UseHighQualityCurve: 1
  m_RotationCurves: []
  m_CompressedRotationCurves: []
  m_EulerCurves: []
  m_PositionCurves: []
  m_ScaleCurves: []
  m_FloatCurves: []
  m_PPtrCurves:
  - curve:
    - time: 0
      value: {fileID: 21300000, guid: 1a837548ac634144a9ee42ccbf228db6, type: 3}
    - time: 0.083333336
      value: {fileID: 21300000, guid: f6bdbe7c449870744a604c33ea7ca4c6, type: 3}
    - time: 0.16666667
      value: {fileID: 21300000, guid: e3d0c26fc6ebdd14ab203cc751fe4eeb, type: 3}
    - time: 0.25
      value: {fileID: 21300000, guid: 313dd6dcf42b52f4980221329d88212d, type: 3}
    - time: 0.33333334
      value: {fileID: 21300000, guid: d00ddb162a31462479af27049d5a856f, type: 3}
    - time: 0.41666666
      value: {fileID: 21300000, guid: 18ab57f4a972ec34cb0acfa37adef70c, type: 3}
    - time: 0.5
      value: {fileID: 21300000, guid: e05045959e4a3ad49a497939756d1e77, type: 3}
    - time: 0.5833333
      value: {fileID: 21300000, guid: 9cbeee4cf82e5dd4eb7cd88bd13fb7be, type: 3}
    - time: 0.6666667
      value: {fileID: 21300000, guid: 35e8ac097e91e3346bd93ad1fc6bd2cf, type: 3}
    - time: 0.75
      value: {fileID: 21300000, guid: 63745cfb914ff404b9cf594e16efcb05, type: 3}
    - time: 0.8333333
      value: {fileID: 21300000, guid: 68d32b2e6f7ea75468ed06fde7e6ea98, type: 3}
    attribute: m_Sprite
    path: 
    classID: 212
    script: {fileID: 0}
  m_SampleRate: 12
  m_WrapMode: 0
  m_Bounds:
    m_Center: {x: 0, y: 0, z: 0}
    m_Extent: {x: 0, y: 0, z: 0}
  m_ClipBindingConstant:
    genericBindings:
    - path: 0
      attribute: 0
      script: {fileID: 0}
      classID: 212
      customType: 23
      isPPtrCurve: 1
    pptrCurveMapping:
    - {fileID: 21300000, guid: 1a837548ac634144a9ee42ccbf228db6, type: 3}
    - {fileID: 21300000, guid: f6bdbe7c449870744a604c33ea7ca4c6, type: 3}
    - {fileID: 21300000, guid: e3d0c26fc6ebdd14ab203cc751fe4eeb, type: 3}
    - {fileID: 21300000, guid: 313dd6dcf42b52f4980221329d88212d, type: 3}
    - {fileID: 21300000, guid: d00ddb162a31462479af27049d5a856f, type: 3}
    - {fileID: 21300000, guid: 18ab57f4a972ec34cb0acfa37adef70c, type: 3}
    - {fileID: 21300000, guid: e05045959e4a3ad49a497939756d1e77, type: 3}
    - {fileID: 21300000, guid: 9cbeee4cf82e5dd4eb7cd88bd13fb7be, type: 3}
    - {fileID: 21300000, guid: 35e8ac097e91e3346bd93ad1fc6bd2cf, type: 3}
    - {fileID: 21300000, guid: 63745cfb914ff404b9cf594e16efcb05, type: 3}
    - {fileID: 21300000, guid: 68d32b2e6f7ea75468ed06fde7e6ea98, type: 3}
  m_AnimationClipSettings:
    serializedVersion: 2
    m_AdditiveReferencePoseClip: {fileID: 0}
    m_AdditiveReferencePoseTime: 0
    m_StartTime: 0
    m_StopTime: 0.9166666
    m_OrientationOffsetY: 0
    m_Level: 0
    m_CycleOffset: 0
    m_HasAdditiveReferencePose: 0
    m_LoopTime: 1
    m_LoopBlend: 0
    m_LoopBlendOrientation: 0
    m_LoopBlendPositionY: 0
    m_LoopBlendPositionXZ: 0
    m_KeepOriginalOrientation: 0
    m_KeepOriginalPositionY: 1
    m_KeepOriginalPositionXZ: 0
    m_HeightFromFeet: 0
    m_Mirror: 0
  m_EditorCurves: []
  m_EulerEditorCurves: []
  m_HasGenericRootTransform: 0
  m_HasMotionFloatCurves: 0
  m_GenerateMotionCurves: 0
  m_IsEmpty: 0
  m_Events: []
