%YAML 1.1
%TAG !u! tag:unity3d.com,2011:
--- !u!74 &7400000
AnimationClip:
  m_ObjectHideFlags: 0
  m_PrefabParentObject: {fileID: 0}
  m_PrefabInternal: {fileID: 0}
  m_Name: firebg
  serializedVersion: 6
  m_Legacy: 0
  m_Compressed: 0
  m_UseHighQualityCurve: 1
  m_RotationCurves: []
  m_CompressedRotationCurves: []
  m_EulerCurves: []
  m_PositionCurves: []
  m_ScaleCurves: []
  m_FloatCurves: []
  m_PPtrCurves:
  - curve:
    - time: 0
      value: {fileID: 21300000, guid: a842f32ecd230494cb3a248eca2102be, type: 3}
    - time: 0.083333336
      value: {fileID: 21300000, guid: fe295111807fc6b46a6b3d7e79dc367d, type: 3}
    - time: 0.16666667
      value: {fileID: 21300000, guid: fb3eaf6b0094b5544b92e84df3ffbddf, type: 3}
    - time: 0.25
      value: {fileID: 21300000, guid: 1f9d706220a77ee4588183daca433b1c, type: 3}
    - time: 0.33333334
      value: {fileID: 21300000, guid: 86291e144dcaa3a4899914ddccad9696, type: 3}
    - time: 0.41666666
      value: {fileID: 21300000, guid: 162c7160f60db964ba21beb89308797a, type: 3}
    - time: 0.5
      value: {fileID: 21300000, guid: 637e3d49272e94a438fabb9ceb411d9f, type: 3}
    - time: 0.5833333
      value: {fileID: 21300000, guid: 75d74002b84552f46abd4620a0320ae2, type: 3}
    - time: 0.6666667
      value: {fileID: 21300000, guid: df83c51b06ce4944fab2b073a5691647, type: 3}
    - time: 0.75
      value: {fileID: 21300000, guid: 94033491ec5518c4e9abb7dda31075dc, type: 3}
    - time: 0.8333333
      value: {fileID: 21300000, guid: 17a8442c7263d2f4ea2abde9266f6a19, type: 3}
    - time: 0.9166667
      value: {fileID: 21300000, guid: 717adfe5b4cc4584cb87089f5c57e45d, type: 3}
    - time: 1
      value: {fileID: 21300000, guid: 5484ce670a6769f47bb7611cb5a9c743, type: 3}
    attribute: m_Sprite
    path: 
    classID: 212
    script: {fileID: 0}
  m_SampleRate: 12
  m_WrapMode: 0
  m_Bounds:
    m_Center: {x: 0, y: 0, z: 0}
    m_Extent: {x: 0, y: 0, z: 0}
  m_ClipBindingConstant:
    genericBindings:
    - path: 0
      attribute: 0
      script: {fileID: 0}
      classID: 212
      customType: 23
      isPPtrCurve: 1
    pptrCurveMapping:
    - {fileID: 21300000, guid: a842f32ecd230494cb3a248eca2102be, type: 3}
    - {fileID: 21300000, guid: fe295111807fc6b46a6b3d7e79dc367d, type: 3}
    - {fileID: 21300000, guid: fb3eaf6b0094b5544b92e84df3ffbddf, type: 3}
    - {fileID: 21300000, guid: 1f9d706220a77ee4588183daca433b1c, type: 3}
    - {fileID: 21300000, guid: 86291e144dcaa3a4899914ddccad9696, type: 3}
    - {fileID: 21300000, guid: 162c7160f60db964ba21beb89308797a, type: 3}
    - {fileID: 21300000, guid: 637e3d49272e94a438fabb9ceb411d9f, type: 3}
    - {fileID: 21300000, guid: 75d74002b84552f46abd4620a0320ae2, type: 3}
    - {fileID: 21300000, guid: df83c51b06ce4944fab2b073a5691647, type: 3}
    - {fileID: 21300000, guid: 94033491ec5518c4e9abb7dda31075dc, type: 3}
    - {fileID: 21300000, guid: 17a8442c7263d2f4ea2abde9266f6a19, type: 3}
    - {fileID: 21300000, guid: 717adfe5b4cc4584cb87089f5c57e45d, type: 3}
    - {fileID: 21300000, guid: 5484ce670a6769f47bb7611cb5a9c743, type: 3}
  m_AnimationClipSettings:
    serializedVersion: 2
    m_AdditiveReferencePoseClip: {fileID: 0}
    m_AdditiveReferencePoseTime: 0
    m_StartTime: 0
    m_StopTime: 1.0833334
    m_OrientationOffsetY: 0
    m_Level: 0
    m_CycleOffset: 0
    m_HasAdditiveReferencePose: 0
    m_LoopTime: 1
    m_LoopBlend: 0
    m_LoopBlendOrientation: 0
    m_LoopBlendPositionY: 0
    m_LoopBlendPositionXZ: 0
    m_KeepOriginalOrientation: 0
    m_KeepOriginalPositionY: 1
    m_KeepOriginalPositionXZ: 0
    m_HeightFromFeet: 0
    m_Mirror: 0
  m_EditorCurves: []
  m_EulerEditorCurves: []
  m_HasGenericRootTransform: 0
  m_HasMotionFloatCurves: 0
  m_GenerateMotionCurves: 0
  m_IsEmpty: 0
  m_Events: []
